LAB-6/Q1/q_tb.vcd
$date
	Thu Oct  6 09:26:36 2022
$end
$version
	Icarus Verilog
$end
$timescale
	1ns
$end
$scope module q_tb $end
$var wire 1 ! f $end
$var reg 4 " i [3:0] $end
$var reg 2 # s [1:0] $end
$scope module f1 $end
$var wire 4 $ i [3:0] $end
$var wire 2 % s [1:0] $end
$var wire 1 ! f $end
$var wire 2 & c [1:0] $end
$scope module stage1 $end
$var wire 2 ' i [1:0] $end
$var wire 1 ( s $end
$var reg 1 ) f $end
$upscope $end
$scope module stage2 $end
$var wire 2 * i [1:0] $end
$var wire 1 + s $end
$var reg 1 , f $end
$upscope $end
$scope module stage3 $end
$var wire 2 - i [1:0] $end
$var wire 1 . s $end
$var reg 1 ! f $end
$upscope $end
$upscope $end
$upscope $end
$enddefinitions $end
#0
$dumpvars
0.
b0 -
0,
0+
b10 *
0)
0(
b10 '
b0 &
b0 %
b1010 $
b0 #
b1010 "
0!
$end
#20
1!
1)
b11 &
b11 -
1,
1(
1+
b1 #
b1 %
#40
0!
0)
b0 &
b0 -
0,
0(
0+
1.
b10 #
b10 %
#60
1!
1)
b11 &
b11 -
1,
1(
1+
b11 #
b11 %
#80
0(
0+
0.
b1 '
b1 *
b0 #
b0 %
b101 "
b101 $
#100
0!
0)
b0 &
b0 -
0,
1(
1+
b1 #
b1 %
#120
1!
1)
b11 &
b11 -
1,
0(
0+
1.
b10 #
b10 %
#140
0!
0)
b0 &
b0 -
0,
1(
1+
b11 #
b11 %
